<svg width="14" height="22" viewBox="0 0 14 22" fill="none" xmlns="http://www.w3.org/2000/svg">
<path d="M0.333435 11.1979L6.99812 15.0683V8.22173V0.333374L0.333435 11.1979Z" fill="#898989"/>
<path d="M6.99802 0.333374V8.22173V15.0683L13.6627 11.1979L6.99802 0.333374Z" fill="#323232"/>
<path d="M7 8.22266L13.6627 11.1979L7 15.0673V8.22266Z" fill="#141414"/>
<path d="M6.99803 8.2218L7.00001 8.22247V15.0665L6.99803 15.0684L0.333344 11.198L6.99803 8.2218Z" fill="#373737"/>
<path d="M0.333405 12.4396L6.99809 21.6667V16.3081L0.333405 12.4396Z" fill="#898989"/>
<path d="M6.99802 16.3081V21.6667L13.6667 12.4396L6.99802 16.3081Z" fill="#323232"/>
</svg>
